{
  "project_info": {
    "project_number": "167369689013",
    "firebase_url": "https://siha-14051.firebaseio.com",
    "project_id": "siha-14051",
    "storage_bucket": "siha-14051.appspot.com"
  },
  "client": [
    {
      "client_info": {
        "mobilesdk_app_id": "1:167369689013:android:edbe7bb0bbffcf3f417bfc",
        "android_client_info": {
          "package_name": "hi.studio.msiha"
        }
      },
      "oauth_client": [
        {
          "client_id": "167369689013-ojmg1pp0u7as0aglshfveva38fhb3r28.apps.googleusercontent.com",
          "client_type": 1,
          "android_info": {
            "package_name": "hi.studio.msiha",
            "certificate_hash": "7a110aeea1c9c3bea4e76f32c3cde54d52c4442e"
          }
        },
        {
          "client_id": "167369689013-b5v7lqs0jmrjb9kh02j433hq8020cog8.apps.googleusercontent.com",
          "client_type": 3
        }
      ],
      "api_key": [
        {
          "current_key": "AIzaSyD74-rFdtjffgEE2q9_wbvYmTsSq7dprs4"
        }
      ],
      "services": {
        "appinvite_service": {
          "other_platform_oauth_client": [
            {
              "client_id": "167369689013-b5v7lqs0jmrjb9kh02j433hq8020cog8.apps.googleusercontent.com",
              "client_type": 3
            }
          ]
        }
      }
    },
    {
      "client_info": {
        "mobilesdk_app_id": "1:167369689013:android:4a0db068e34972c7417bfc",
        "android_client_info": {
          "package_name": "hi.studio.msiha.debug"
        }
      },
      "oauth_client": [
        {
          "client_id": "167369689013-0dnum2al5rsnsotvg01k64gh3ds80uhj.apps.googleusercontent.com",
          "client_type": 1,
          "android_info": {
            "package_name": "hi.studio.msiha.debug",
            "certificate_hash": "7a110aeea1c9c3bea4e76f32c3cde54d52c4442e"
          }
        },
        {
          "client_id": "167369689013-b5v7lqs0jmrjb9kh02j433hq8020cog8.apps.googleusercontent.com",
          "client_type": 3
        }
      ],
      "api_key": [
        {
          "current_key": "AIzaSyD74-rFdtjffgEE2q9_wbvYmTsSq7dprs4"
        }
      ],
      "services": {
        "appinvite_service": {
          "other_platform_oauth_client": [
            {
              "client_id": "167369689013-b5v7lqs0jmrjb9kh02j433hq8020cog8.apps.googleusercontent.com",
              "client_type": 3
            }
          ]
        }
      }
    },
    {
      "client_info": {
        "mobilesdk_app_id": "1:167369689013:android:9ef40fd65da71eeb417bfc",
        "android_client_info": {
          "package_name": "hi.studio.msiha_pasien"
        }
      },
      "oauth_client": [
        {
          "client_id": "167369689013-m15u270nh6pmvj5v54ljv58faf0cf6tu.apps.googleusercontent.com",
          "client_type": 1,
          "android_info": {
            "package_name": "hi.studio.msiha_pasien",
            "certificate_hash": "956106a4babc50d9905cafdacccaaa9695a663ca"
          }
        },
        {
          "client_id": "167369689013-b5v7lqs0jmrjb9kh02j433hq8020cog8.apps.googleusercontent.com",
          "client_type": 3
        }
      ],
      "api_key": [
        {
          "current_key": "AIzaSyD74-rFdtjffgEE2q9_wbvYmTsSq7dprs4"
        }
      ],
      "services": {
        "appinvite_service": {
          "other_platform_oauth_client": [
            {
              "client_id": "167369689013-b5v7lqs0jmrjb9kh02j433hq8020cog8.apps.googleusercontent.com",
              "client_type": 3
            }
          ]
        }
      }
    },
    {
      "client_info": {
        "mobilesdk_app_id": "1:167369689013:android:f101bdd17a59cb6f417bfc",
        "android_client_info": {
          "package_name": "hi.studio.msiha_pasien.debug"
        }
      },
      "oauth_client": [
        {
          "client_id": "167369689013-r9v3mkqks2e3th1t7b1q9pj41vk4t7f4.apps.googleusercontent.com",
          "client_type": 1,
          "android_info": {
            "package_name": "hi.studio.msiha_pasien.debug",
            "certificate_hash": "956106a4babc50d9905cafdacccaaa9695a663ca"
          }
        },
        {
          "client_id": "167369689013-b5v7lqs0jmrjb9kh02j433hq8020cog8.apps.googleusercontent.com",
          "client_type": 3
        }
      ],
      "api_key": [
        {
          "current_key": "AIzaSyD74-rFdtjffgEE2q9_wbvYmTsSq7dprs4"
        }
      ],
      "services": {
        "appinvite_service": {
          "other_platform_oauth_client": [
            {
              "client_id": "167369689013-b5v7lqs0jmrjb9kh02j433hq8020cog8.apps.googleusercontent.com",
              "client_type": 3
            }
          ]
        }
      }
    },
    {
      "client_info": {
        "mobilesdk_app_id": "1:167369689013:android:7b04fb8b975098cc417bfc",
        "android_client_info": {
          "package_name": "hi.studio.sihalogistik"
        }
      },
      "oauth_client": [
        {
          "client_id": "167369689013-b5v7lqs0jmrjb9kh02j433hq8020cog8.apps.googleusercontent.com",
          "client_type": 3
        }
      ],
      "api_key": [
        {
          "current_key": "AIzaSyD74-rFdtjffgEE2q9_wbvYmTsSq7dprs4"
        }
      ],
      "services": {
        "appinvite_service": {
          "other_platform_oauth_client": [
            {
              "client_id": "167369689013-b5v7lqs0jmrjb9kh02j433hq8020cog8.apps.googleusercontent.com",
              "client_type": 3
            }
          ]
        }
      }
    }
  ],
  "configuration_version": "1"
}